p3/project_benches/LC3/sim/transcript
# vsim -c -sv_seed random "+UVM_TESTNAME=lc3_alu_test" -permit_unmatched_virtual_intf "+notimingchecks" -suppress 8887 -solvefaildebug -solvefailtestcase -uvmcontrol=none -printsimstats -do " coverage save -onexit lc3_alu_test.ucdb; set IterationLimit 140000; set NoQuitOnFinish 1;   run -all; quit -f;" optimized_batch_top_tb 
# Start time: 10:22:03 on Dec 01,2025
# //  Questa Sim
# //  Version 2024.2 linux May 20 2024
# //
# // Unpublished work. Copyright 2024 Siemens
# //
# // This material contains trade secrets or otherwise confidential information
# // owned by Siemens Industry Software Inc. or its affiliates (collectively,
# // "SISW"), or its licensors. Access to and use of this information is strictly
# // limited as set forth in the Customer's applicable agreements with SISW.
# //
# // This material may not be copied, distributed, or otherwise disclosed outside
# // of the Customer's facilities without the express written permission of SISW,
# // and may not be used in any way not expressly authorized by SISW.
# //
# Loading sv_std.std
# Loading work.imem_driver_bfm(fast)
# Loading work.imem_monitor_bfm(fast)
# Loading work.uvmf_base_pkg_hdl(fast)
# Loading work.imem_pkg_hdl(fast)
# Loading work.fetch_in_driver_bfm(fast)
# Loading work.fetch_in_monitor_bfm(fast)
# Loading work.fetch_out_driver_bfm(fast)
# Loading work.fetch_out_monitor_bfm(fast)
# Loading work.decode_in_driver_bfm(fast)
# Loading work.decode_in_monitor_bfm(fast)
# Loading work.decode_out_driver_bfm(fast)
# Loading work.decode_out_monitor_bfm(fast)
# Loading work.execute_in_driver_bfm(fast)
# Loading work.execute_in_monitor_bfm(fast)
# Loading work.execute_out_driver_bfm(fast)
# Loading work.execute_out_monitor_bfm(fast)
# Loading work.memaccess_in_driver_bfm(fast)
# Loading work.memaccess_in_monitor_bfm(fast)
# Loading work.memaccess_out_driver_bfm(fast)
# Loading work.memaccess_out_monitor_bfm(fast)
# Loading work.writeback_in_driver_bfm(fast)
# Loading work.writeback_in_monitor_bfm(fast)
# Loading work.writeback_out_driver_bfm(fast)
# Loading work.writeback_out_monitor_bfm(fast)
# Loading work.controller_in_driver_bfm(fast)
# Loading work.controller_in_monitor_bfm(fast)
# Loading work.controller_out_driver_bfm(fast)
# Loading work.controller_out_monitor_bfm(fast)
# Loading work.dmem_driver_bfm(fast)
# Loading work.dmem_monitor_bfm(fast)
# Loading mtiUvm.uvm_pkg(fast)
# Loading work.uvmf_base_pkg(fast)
# Loading work.imem_pkg(fast)
# Loading work.controller_out_pkg_hdl(fast)
# Loading work.controller_out_pkg(fast)
# Loading work.controller_in_pkg_hdl(fast)
# Loading work.controller_in_pkg(fast)
# Loading work.lc3_prediction_pkg(fast)
# Loading work.controller_env_pkg(fast)
# Loading work.writeback_out_pkg_hdl(fast)
# Loading work.writeback_out_pkg(fast)
# Loading work.writeback_in_pkg_hdl(fast)
# Loading work.writeback_in_pkg(fast)
# Loading work.writeback_env_pkg(fast)
# Loading work.memaccess_out_pkg_hdl(fast)
# Loading work.memaccess_out_pkg(fast)
# Loading work.memaccess_in_pkg_hdl(fast)
# Loading work.memaccess_in_pkg(fast)
# Loading work.memaccess_env_pkg(fast)
# Loading work.execute_out_pkg_hdl(fast)
# Loading work.execute_out_pkg(fast)
# Loading work.execute_in_pkg_hdl(fast)
# Loading work.execute_in_pkg(fast)
# Loading work.execute_env_pkg(fast)
# Loading work.decode_out_pkg_hdl(fast)
# Loading work.decode_out_pkg(fast)
# Loading work.decode_in_pkg_hdl(fast)
# Loading work.decode_in_pkg(fast)
# Loading work.decode_env_pkg(fast)
# Loading work.fetch_out_pkg_hdl(fast)
# Loading work.fetch_out_pkg(fast)
# Loading work.fetch_in_pkg_hdl(fast)
# Loading work.fetch_in_pkg(fast)
# Loading work.fetch_env_pkg(fast)
# Loading work.dmem_pkg_hdl(fast)
# Loading work.dmem_pkg(fast)
# Loading work.lc3_env_pkg(fast)
# Loading work.LC3_parameters_pkg(fast)
# Loading work.LC3_sequences_pkg(fast)
# Loading work.LC3_tests_pkg(fast)
# Loading mtiUvm.questa_uvm_pkg(fast)
# Loading work.hvl_top(fast)
# Loading work.hdl_top(fast)
# Loading work.fetch_in_if_sv_unit(fast)
# Loading work.fetch_in_if(fast__1)
# Loading work.fetch_out_if_sv_unit(fast)
# Loading work.fetch_out_if(fast__1)
# Loading work.decode_in_if_sv_unit(fast)
# Loading work.decode_in_if(fast__1)
# Loading work.decode_out_if_sv_unit(fast)
# Loading work.decode_out_if(fast__1)
# Loading work.execute_in_if_sv_unit(fast)
# Loading work.execute_in_if(fast__1)
# Loading work.execute_out_if_sv_unit(fast)
# Loading work.execute_out_if(fast__1)
# Loading work.memaccess_in_if_sv_unit(fast)
# Loading work.memaccess_in_if(fast__1)
# Loading work.memaccess_out_if_sv_unit(fast)
# Loading work.memaccess_out_if(fast__1)
# Loading work.writeback_in_if_sv_unit(fast)
# Loading work.writeback_in_if(fast__1)
# Loading work.writeback_out_if_sv_unit(fast)
# Loading work.writeback_out_if(fast__1)
# Loading work.controller_in_if_sv_unit(fast)
# Loading work.controller_in_if(fast__1)
# Loading work.controller_out_if_sv_unit(fast)
# Loading work.controller_out_if(fast__1)
# Loading work.imem_if_sv_unit(fast)
# Loading work.imem_if(fast__1)
# Loading work.dmem_if_sv_unit(fast)
# Loading work.dmem_if(fast__1)
# Loading work.fetch_in_monitor_bfm_sv_unit(fast)
# Loading work.fetch_in_monitor_bfm(fast__1)
# Loading work.fetch_out_monitor_bfm_sv_unit(fast)
# Loading work.fetch_out_monitor_bfm(fast__1)
# Loading work.decode_in_monitor_bfm_sv_unit(fast)
# Loading work.decode_in_monitor_bfm(fast__1)
# Loading work.decode_out_monitor_bfm_sv_unit(fast)
# Loading work.decode_out_monitor_bfm(fast__1)
# Loading work.execute_in_monitor_bfm_sv_unit(fast)
# Loading work.execute_in_monitor_bfm(fast__1)
# Loading work.execute_out_monitor_bfm_sv_unit(fast)
# Loading work.execute_out_monitor_bfm(fast__1)
# Loading work.memaccess_in_monitor_bfm_sv_unit(fast)
# Loading work.memaccess_in_monitor_bfm(fast__1)
# Loading work.memaccess_out_monitor_bfm_sv_unit(fast)
# Loading work.memaccess_out_monitor_bfm(fast__1)
# Loading work.writeback_in_monitor_bfm_sv_unit(fast)
# Loading work.writeback_in_monitor_bfm(fast__1)
# Loading work.writeback_out_monitor_bfm_sv_unit(fast)
# Loading work.writeback_out_monitor_bfm(fast__1)
# Loading work.controller_in_monitor_bfm_sv_unit(fast)
# Loading work.controller_in_monitor_bfm(fast__1)
# Loading work.controller_out_monitor_bfm_sv_unit(fast)
# Loading work.controller_out_monitor_bfm(fast__1)
# Loading work.imem_monitor_bfm_sv_unit(fast)
# Loading work.imem_monitor_bfm(fast__1)
# Loading work.dmem_monitor_bfm_sv_unit(fast)
# Loading work.dmem_monitor_bfm(fast__1)
# Loading work.imem_driver_bfm_sv_unit(fast)
# Loading work.imem_driver_bfm(fast__1)
# Loading work.dmem_driver_bfm_sv_unit(fast)
# Loading work.dmem_driver_bfm(fast__1)
# Loading /mnt/apps/public/COE/mg_apps/questa2024.2/questasim/uvm-1.1d/linux/uvm_dpi.so
# Sv_Seed = 1679076500
#  coverage save -onexit lc3_alu_test.ucdb
#  set IterationLimit 140000
# 140000
#  set NoQuitOnFinish 1
# 1
#    run -all
# ----------------------------------------------------------------
# UVM-1.1d
# (C) 2007-2013 Mentor Graphics Corporation
# (C) 2007-2013 Cadence Design Systems, Inc.
# (C) 2006-2013 Synopsys, Inc.
# (C) 2011-2013 Cypress Semiconductor Corp.
# ----------------------------------------------------------------
# 
#   ***********       IMPORTANT RELEASE NOTES         ************
# 
#   You are using a version of the UVM library that has been compiled
#   with `UVM_NO_DEPRECATED undefined.
#   See http://www.eda.org/svdb/view.php?id=3313 for more details.
# 
#   You are using a version of the UVM library that has been compiled
#   with `UVM_OBJECT_MUST_HAVE_CONSTRUCTOR undefined.
#   See http://www.eda.org/svdb/view.php?id=3770 for more details.
# 
#       (Specify +UVM_NO_RELNOTES to turn off this notice)
# 
# ----------------------------------------------------------------
# //  UVM Framework 
# //  Version 2023.4_2
# //  (C) 2013-2024 Siemens Corporation
# //  Digital Industries Software
# //  Siemens EDA
# //  All Rights Reserved.
# ----------------------------------------------------------------
# 
# 
# UVM_INFO verilog_src/questa_uvm_pkg-1.2/src/questa_uvm_pkg.sv(277) @ 0: reporter [Questa UVM] QUESTA_UVM-1.2.3
# UVM_INFO verilog_src/questa_uvm_pkg-1.2/src/questa_uvm_pkg.sv(278) @ 0: reporter [Questa UVM]  questa_uvm::init()
# UVM_INFO @ 0.000ns: reporter [RNTST] Running test lc3_alu_test...
# UVM_INFO @ 0.000ns: uvm_test_top [ALU_TEST] Applying ALU IMEM sequence override
# UVM_WARNING @ 0.000ns: reporter [COVERAGE_MODEL_REVIEW] A covergroup has been constructed which may need review because of either generation or re-generation with merging.  Please note that configuration variables added as a result of re-generation and merging are not automatically added to the covergroup.  Remove this warning after the covergroup has been reviewed.
# UVM_WARNING @ 0.000ns: reporter [COVERAGE_MODEL_REVIEW] A covergroup has been constructed which may need review because of either generation or re-generation with merging.  Please note that configuration variables added as a result of re-generation and merging are not automatically added to the covergroup.  Remove this warning after the covergroup has been reviewed.
# UVM_WARNING @ 0.000ns: reporter [COVERAGE_MODEL_REVIEW] A covergroup has been constructed which may need review because of either generation or re-generation with merging.  Please note that configuration variables added as a result of re-generation and merging are not automatically added to the covergroup.  Remove this warning after the covergroup has been reviewed.
# UVM_WARNING @ 0.000ns: reporter [COVERAGE_MODEL_REVIEW] A covergroup has been constructed which may need review because of either generation or re-generation with merging.  Please note that configuration variables added as a result of re-generation and merging are not automatically added to the covergroup.  Remove this warning after the covergroup has been reviewed.
# UVM_WARNING @ 0.000ns: reporter [COVERAGE_MODEL_REVIEW] A covergroup has been constructed which may need review because of either generation or re-generation with merging.  Please note that configuration variables added as a result of re-generation and merging are not automatically added to the covergroup.  Remove this warning after the covergroup has been reviewed.
# UVM_WARNING @ 0.000ns: reporter [COVERAGE_MODEL_REVIEW] A covergroup has been constructed which may need review because of either generation or re-generation with merging.  Please note that configuration variables added as a result of re-generation and merging are not automatically added to the covergroup.  Remove this warning after the covergroup has been reviewed.
# UVM_WARNING @ 0.000ns: reporter [COVERAGE_MODEL_REVIEW] A covergroup has been constructed which may need review because of either generation or re-generation with merging.  Please note that configuration variables added as a result of re-generation and merging are not automatically added to the covergroup.  Remove this warning after the covergroup has been reviewed.
# UVM_WARNING @ 0.000ns: uvm_test_top.environment.controller_env.controller_pred [PREDICTOR_REVIEW] This predictor has been created either through generation or re-generation with merging.  Remove this warning after the predictor has been reviewed.
# UVM_WARNING @ 0.000ns: uvm_test_top.environment.execute_env.exe_pred [PREDICTOR_REVIEW] This predictor has been created either through generation or re-generation with merging.  Remove this warning after the predictor has been reviewed.
# UVM_WARNING @ 0.000ns: uvm_test_top.environment.fetch_env.fetch_predictor [PREDICTOR_REVIEW] This predictor has been created either through generation or re-generation with merging.  Remove this warning after the predictor has been reviewed.
# UVM_WARNING @ 0.000ns: uvm_test_top.environment.memaccess_env.memaccess_predictor [PREDICTOR_REVIEW] This predictor has been created either through generation or re-generation with merging.  Remove this warning after the predictor has been reviewed.
# UVM_WARNING @ 0.000ns: uvm_test_top.environment.writeback_env.writeback_pred [PREDICTOR_REVIEW] This predictor has been created either through generation or re-generation with merging.  Remove this warning after the predictor has been reviewed.
# UVM_INFO @ 0.000ns: uvm_test_top [ALU_TEST] ===== LC3 ALU TEST STARTED =====
# UVM_INFO @ 100.000ns: uvm_test_top.environment.controller_env.controller_pred [PRED] Transaction Received through analysis_export
# UVM_ERROR @ 100.000ns: uvm_test_top.environment.controller_env.controller_scoreboard [SCBD] MISMATCH! - EXPECTED: enable_updatePC:0x0 enable_fetch:0x1 enable_decode:0x0 enable_execute:0x0 enable_writeback:0x0 br_taken:0x0 bypass_alu_1:0x0 bypass_alu_2:0x0 bypass_mem_1:0x0 bypass_mem_2:0x0 mem_state:0x3 start_time:0xxxxxxxxxxxxxxxxx end_time:0xxxxxxxxxxxxxxxxx transaction_view_h:0x00000000 ACTUAL: enable_updatePC:0x0 enable_fetch:0x0 enable_decode:0x0 enable_execute:0x0 enable_writeback:0x0 br_taken:0x0 bypass_alu_1:0x0 bypass_alu_2:0x0 bypass_mem_1:0x0 bypass_mem_2:0x0 mem_state:0x3 start_time:0x0000000000000000 end_time:0x0000000000000064 transaction_view_h:0x00000000 
# UVM_INFO @ 110.000ns: uvm_test_top.environment.writeback_env.writeback_pred [PRED] Transaction Received through writeback_in_agent_ae
# UVM_INFO @ 110.000ns: uvm_test_top.environment.writeback_env.writeback_pred [PRED] Prediction sent from writeback_model: vsr1=0x0 vsr2=0x0 psr=0x0
# UVM_INFO @ 110.000ns: uvm_test_top.environment.writeback_env.writeback_sb [SCBD] MATCH! - EXPECTED: psr:0x0 vsr1:0x0000 vsr2:0x0000 ACTUAL: psr:0x0 vsr1:0x0000 vsr2:0x0000 
# UVM_INFO @ 110.000ns: uvm_test_top.environment.controller_env.controller_pred [PRED] Transaction Received through analysis_export
# UVM_ERROR @ 110.000ns: uvm_test_top.environment.controller_env.controller_scoreboard [SCBD] MISMATCH! - EXPECTED: enable_updatePC:0x1 enable_fetch:0x1 enable_decode:0x0 enable_execute:0x0 enable_writeback:0x0 br_taken:0x0 bypass_alu_1:0x0 bypass_alu_2:0x0 bypass_mem_1:0x0 bypass_mem_2:0x0 mem_state:0x3 start_time:0xxxxxxxxxxxxxxxxx end_time:0xxxxxxxxxxxxxxxxx transaction_view_h:0x00000000 ACTUAL: enable_updatePC:0x0 enable_fetch:0x1 enable_decode:0x0 enable_execute:0x0 enable_writeback:0x0 br_taken:0x0 bypass_alu_1:0x0 bypass_alu_2:0x0 bypass_mem_1:0x0 bypass_mem_2:0x0 mem_state:0x3 start_time:0x0000000000000064 end_time:0x000000000000006e transaction_view_h:0x00000000 
# UVM_INFO @ 120.000ns: uvm_test_top.environment.fetch_env.fetch_predictor [PRED] Received fetch_in: br_taken:0x0 taddr:0x0000 enable_updatePC:0x0 enable_fetch:0x1 start_time:0x0000000000000000 end_time:0x0000000000000078 transaction_view_h:0x00000000 
# UVM_INFO @ 120.000ns: uvm_test_top.environment.fetch_env.fetch_predictor [PRED] Prediction sent from fetch_model: pc=0x3000 npc=0x3001 instrmem_rd=1
# UVM_INFO @ 120.000ns: uvm_test_top.environment.fetch_env.fetch_scoreboard [SCBD] MATCH! - EXPECTED: instrmem_rd:0x1 pc:0x3000 npc:0x3001 start_time:0xxxxxxxxxxxxxxxxx end_time:0xxxxxxxxxxxxxxxxx transaction_view_h:0x00000000 ACTUAL: instrmem_rd:0x1 pc:0x3000 npc:0x3001 start_time:0x0000000000000000 end_time:0x0000000000000078 transaction_view_h:0x00000000 
# UVM_INFO @ 120.000ns: uvm_test_top.environment.controller_env.controller_pred [PRED] Transaction Received through analysis_export
# UVM_ERROR @ 120.000ns: uvm_test_top.environment.controller_env.controller_scoreboard [SCBD] MISMATCH! - EXPECTED: enable_updatePC:0x1 enable_fetch:0x1 enable_decode:0x0 enable_execute:0x0 enable_writeback:0x0 br_taken:0x0 bypass_alu_1:0x0 bypass_alu_2:0x0 bypass_mem_1:0x0 bypass_mem_2:0x0 mem_state:0x3 start_time:0xxxxxxxxxxxxxxxxx end_time:0xxxxxxxxxxxxxxxxx transaction_view_h:0x00000000 ACTUAL: enable_updatePC:0x0 enable_fetch:0x1 enable_decode:0x0 enable_execute:0x0 enable_writeback:0x0 br_taken:0x0 bypass_alu_1:0x0 bypass_alu_2:0x0 bypass_mem_1:0x0 bypass_mem_2:0x0 mem_state:0x3 start_time:0x000000000000006e end_time:0x0000000000000078 transaction_view_h:0x00000000 
# UVM_INFO @ 130.000ns: uvm_test_top.environment.writeback_env.writeback_pred [PRED] Transaction Received through writeback_in_agent_ae
# UVM_INFO @ 130.000ns: uvm_test_top.environment.writeback_env.writeback_pred [PRED] Prediction sent from writeback_model: vsr1=0x0 vsr2=0x0 psr=0x0
# UVM_INFO @ 130.000ns: uvm_test_top.environment.writeback_env.writeback_sb [SCBD] MATCH! - EXPECTED: psr:0x0 vsr1:0x0000 vsr2:0x0000 ACTUAL: psr:0x0 vsr1:0x0000 vsr2:0x0000 
# UVM_INFO @ 130.000ns: uvm_test_top.environment.controller_env.controller_pred [PRED] Transaction Received through analysis_export
# UVM_ERROR @ 130.000ns: uvm_test_top.environment.controller_env.controller_scoreboard [SCBD] MISMATCH! - EXPECTED: enable_updatePC:0x1 enable_fetch:0x1 enable_decode:0x0 enable_execute:0x0 enable_writeback:0x0 br_taken:0x0 bypass_alu_1:0x0 bypass_alu_2:0x0 bypass_mem_1:0x0 bypass_mem_2:0x0 mem_state:0x3 start_time:0xxxxxxxxxxxxxxxxx end_time:0xxxxxxxxxxxxxxxxx transaction_view_h:0x00000000 ACTUAL: enable_updatePC:0x0 enable_fetch:0x1 enable_decode:0x0 enable_execute:0x0 enable_writeback:0x0 br_taken:0x0 bypass_alu_1:0x0 bypass_alu_2:0x0 bypass_mem_1:0x0 bypass_mem_2:0x0 mem_state:0x3 start_time:0x0000000000000078 end_time:0x0000000000000082 transaction_view_h:0x00000000 
# UVM_INFO @ 140.000ns: uvm_test_top.environment.controller_env.controller_pred [PRED] Transaction Received through analysis_export
# UVM_ERROR @ 140.000ns: uvm_test_top.environment.controller_env.controller_scoreboard [SCBD] MISMATCH! - EXPECTED: enable_updatePC:0x1 enable_fetch:0x1 enable_decode:0x0 enable_execute:0x0 enable_writeback:0x0 br_taken:0x0 bypass_alu_1:0x0 bypass_alu_2:0x0 bypass_mem_1:0x0 bypass_mem_2:0x0 mem_state:0x3 start_time:0xxxxxxxxxxxxxxxxx end_time:0xxxxxxxxxxxxxxxxx transaction_view_h:0x00000000 ACTUAL: enable_updatePC:0x0 enable_fetch:0x1 enable_decode:0x0 enable_execute:0x0 enable_writeback:0x0 br_taken:0x0 bypass_alu_1:0x0 bypass_alu_2:0x0 bypass_mem_1:0x0 bypass_mem_2:0x0 mem_state:0x3 start_time:0x0000000000000082 end_time:0x000000000000008c transaction_view_h:0x00000000 
# UVM_INFO @ 150.000ns: uvm_test_top.environment.fetch_env.fetch_predictor [PRED] Received fetch_in: br_taken:0x0 taddr:0x0000 enable_updatePC:0x0 enable_fetch:0x1 start_time:0x0000000000000078 end_time:0x0000000000000096 transaction_view_h:0x00000000 
# UVM_INFO @ 150.000ns: uvm_test_top.environment.fetch_env.fetch_predictor [PRED] Prediction sent from fetch_model: pc=0x3000 npc=0x3001 instrmem_rd=1
# UVM_INFO @ 150.000ns: uvm_test_top.environment.fetch_env.fetch_scoreboard [SCBD] MATCH! - EXPECTED: instrmem_rd:0x1 pc:0x3000 npc:0x3001 start_time:0xxxxxxxxxxxxxxxxx end_time:0xxxxxxxxxxxxxxxxx transaction_view_h:0x00000000 ACTUAL: instrmem_rd:0x1 pc:0x3000 npc:0x3001 start_time:0x0000000000000078 end_time:0x0000000000000096 transaction_view_h:0x00000000 
# UVM_INFO @ 150.000ns: uvm_test_top.environment.writeback_env.writeback_pred [PRED] Transaction Received through writeback_in_agent_ae
# UVM_INFO @ 150.000ns: uvm_test_top.environment.writeback_env.writeback_pred [PRED] Prediction sent from writeback_model: vsr1=0x0 vsr2=0x0 psr=0x0
# UVM_INFO @ 150.000ns: uvm_test_top.environment.writeback_env.writeback_sb [SCBD] MATCH! - EXPECTED: psr:0x0 vsr1:0x0000 vsr2:0x0000 ACTUAL: psr:0x0 vsr1:0x0000 vsr2:0x0000 
# UVM_INFO @ 150.000ns: uvm_test_top.environment.controller_env.controller_pred [PRED] Transaction Received through analysis_export
# UVM_ERROR @ 150.000ns: uvm_test_top.environment.controller_env.controller_scoreboard [SCBD] MISMATCH! - EXPECTED: enable_updatePC:0x1 enable_fetch:0x1 enable_decode:0x0 enable_execute:0x0 enable_writeback:0x0 br_taken:0x0 bypass_alu_1:0x0 bypass_alu_2:0x0 bypass_mem_1:0x0 bypass_mem_2:0x0 mem_state:0x3 start_time:0xxxxxxxxxxxxxxxxx end_time:0xxxxxxxxxxxxxxxxx transaction_view_h:0x00000000 ACTUAL: enable_updatePC:0x0 enable_fetch:0x1 enable_decode:0x0 enable_execute:0x0 enable_writeback:0x0 br_taken:0x0 bypass_alu_1:0x0 bypass_alu_2:0x0 bypass_mem_1:0x0 bypass_mem_2:0x0 mem_state:0x3 start_time:0x000000000000008c end_time:0x0000000000000096 transaction_view_h:0x00000000 
# UVM_INFO @ 160.000ns: uvm_test_top.environment.controller_env.controller_pred [PRED] Transaction Received through analysis_export
# UVM_ERROR @ 160.000ns: uvm_test_top.environment.controller_env.controller_scoreboard [SCBD] MISMATCH! - EXPECTED: enable_updatePC:0x1 enable_fetch:0x1 enable_decode:0x0 enable_execute:0x0 enable_writeback:0x0 br_taken:0x0 bypass_alu_1:0x0 bypass_alu_2:0x0 bypass_mem_1:0x0 bypass_mem_2:0x0 mem_state:0x3 start_time:0xxxxxxxxxxxxxxxxx end_time:0xxxxxxxxxxxxxxxxx transaction_view_h:0x00000000 ACTUAL: enable_updatePC:0x0 enable_fetch:0x1 enable_decode:0x0 enable_execute:0x0 enable_writeback:0x0 br_taken:0x0 bypass_alu_1:0x0 bypass_alu_2:0x0 bypass_mem_1:0x0 bypass_mem_2:0x0 mem_state:0x3 start_time:0x0000000000000096 end_time:0x00000000000000a0 transaction_view_h:0x00000000 
# UVM_INFO @ 170.000ns: uvm_test_top.environment.writeback_env.writeback_pred [PRED] Transaction Received through writeback_in_agent_ae
# UVM_INFO @ 170.000ns: uvm_test_top.environment.writeback_env.writeback_pred [PRED] Prediction sent from writeback_model: vsr1=0x0 vsr2=0x0 psr=0x0
# UVM_INFO @ 170.000ns: uvm_test_top.environment.writeback_env.writeback_sb [SCBD] MATCH! - EXPECTED: psr:0x0 vsr1:0x0000 vsr2:0x0000 ACTUAL: psr:0x0 vsr1:0x0000 vsr2:0x0000 
# UVM_INFO @ 170.000ns: uvm_test_top.environment.controller_env.controller_pred [PRED] Transaction Received through analysis_export
# UVM_ERROR @ 170.000ns: uvm_test_top.environment.controller_env.controller_scoreboard [SCBD] MISMATCH! - EXPECTED: enable_updatePC:0x1 enable_fetch:0x1 enable_decode:0x0 enable_execute:0x0 enable_writeback:0x0 br_taken:0x0 bypass_alu_1:0x0 bypass_alu_2:0x0 bypass_mem_1:0x0 bypass_mem_2:0x0 mem_state:0x3 start_time:0xxxxxxxxxxxxxxxxx end_time:0xxxxxxxxxxxxxxxxx transaction_view_h:0x00000000 ACTUAL: enable_updatePC:0x0 enable_fetch:0x1 enable_decode:0x0 enable_execute:0x0 enable_writeback:0x0 br_taken:0x0 bypass_alu_1:0x0 bypass_alu_2:0x0 bypass_mem_1:0x0 bypass_mem_2:0x0 mem_state:0x3 start_time:0x00000000000000a0 end_time:0x00000000000000aa transaction_view_h:0x00000000 
# UVM_INFO @ 180.000ns: uvm_test_top.environment.fetch_env.fetch_predictor [PRED] Received fetch_in: br_taken:0x0 taddr:0x0000 enable_updatePC:0x0 enable_fetch:0x1 start_time:0x0000000000000096 end_time:0x00000000000000b4 transaction_view_h:0x00000000 
# UVM_INFO @ 180.000ns: uvm_test_top.environment.fetch_env.fetch_predictor [PRED] Prediction sent from fetch_model: pc=0x3000 npc=0x3001 instrmem_rd=1
# UVM_INFO @ 180.000ns: uvm_test_top.environment.fetch_env.fetch_scoreboard [SCBD] MATCH! - EXPECTED: instrmem_rd:0x1 pc:0x3000 npc:0x3001 start_time:0xxxxxxxxxxxxxxxxx end_time:0xxxxxxxxxxxxxxxxx transaction_view_h:0x00000000 ACTUAL: instrmem_rd:0x1 pc:0x3000 npc:0x3001 start_time:0x0000000000000096 end_time:0x00000000000000b4 transaction_view_h:0x00000000 
# UVM_INFO @ 180.000ns: uvm_test_top.environment.controller_env.controller_pred [PRED] Transaction Received through analysis_export
# UVM_ERROR @ 180.000ns: uvm_test_top.environment.controller_env.controller_scoreboard [SCBD] MISMATCH! - EXPECTED: enable_updatePC:0x1 enable_fetch:0x1 enable_decode:0x0 enable_execute:0x0 enable_writeback:0x0 br_taken:0x0 bypass_alu_1:0x0 bypass_alu_2:0x0 bypass_mem_1:0x0 bypass_mem_2:0x0 mem_state:0x3 start_time:0xxxxxxxxxxxxxxxxx end_time:0xxxxxxxxxxxxxxxxx transaction_view_h:0x00000000 ACTUAL: enable_updatePC:0x0 enable_fetch:0x1 enable_decode:0x0 enable_execute:0x0 enable_writeback:0x0 br_taken:0x0 bypass_alu_1:0x0 bypass_alu_2:0x0 bypass_mem_1:0x0 bypass_mem_2:0x0 mem_state:0x3 start_time:0x00000000000000aa end_time:0x00000000000000b4 transaction_view_h:0x00000000 
# UVM_INFO @ 190.000ns: uvm_test_top.environment.writeback_env.writeback_pred [PRED] Transaction Received through writeback_in_agent_ae
# UVM_INFO @ 190.000ns: uvm_test_top.environment.writeback_env.writeback_pred [PRED] Prediction sent from writeback_model: vsr1=0x0 vsr2=0x0 psr=0x0
# UVM_INFO @ 190.000ns: uvm_test_top.environment.writeback_env.writeback_sb [SCBD] MATCH! - EXPECTED: psr:0x0 vsr1:0x0000 vsr2:0x0000 ACTUAL: psr:0x0 vsr1:0x0000 vsr2:0x0000 
# UVM_INFO @ 190.000ns: uvm_test_top.environment.controller_env.controller_pred [PRED] Transaction Received through analysis_export
# UVM_ERROR @ 190.000ns: uvm_test_top.environment.controller_env.controller_scoreboard [SCBD] MISMATCH! - EXPECTED: enable_updatePC:0x1 enable_fetch:0x1 enable_decode:0x0 enable_execute:0x0 enable_writeback:0x0 br_taken:0x0 bypass_alu_1:0x0 bypass_alu_2:0x0 bypass_mem_1:0x0 bypass_mem_2:0x0 mem_state:0x3 start_time:0xxxxxxxxxxxxxxxxx end_time:0xxxxxxxxxxxxxxxxx transaction_view_h:0x00000000 ACTUAL: enable_updatePC:0x0 enable_fetch:0x1 enable_decode:0x0 enable_execute:0x0 enable_writeback:0x0 br_taken:0x0 bypass_alu_1:0x0 bypass_alu_2:0x0 bypass_mem_1:0x0 bypass_mem_2:0x0 mem_state:0x3 start_time:0x00000000000000b4 end_time:0x00000000000000be transaction_view_h:0x00000000 
# UVM_INFO @ 200.000ns: uvm_test_top.environment.memaccess_env.memaccess_predictor [PRED] Transaction Received through memaccess_analysis_predictor_export
# UVM_INFO @ 200.000ns: uvm_test_top.environment.memaccess_env.memaccess_sb [SCBD] MATCH! - EXPECTED: DMem_addr:0x0000 DMem_din:0x0000 memout:0x0000 DMem_rd:0x0 ACTUAL: DMem_addr:0x0000 DMem_din:0x0000 memout:0x0000 DMem_rd:0x0 
# UVM_INFO @ 200.000ns: uvm_test_top.environment.controller_env.controller_pred [PRED] Transaction Received through analysis_export
# UVM_ERROR @ 200.000ns: uvm_test_top.environment.controller_env.controller_scoreboard [SCBD] MISMATCH! - EXPECTED: enable_updatePC:0x1 enable_fetch:0x1 enable_decode:0x0 enable_execute:0x0 enable_writeback:0x0 br_taken:0x0 bypass_alu_1:0x0 bypass_alu_2:0x0 bypass_mem_1:0x0 bypass_mem_2:0x0 mem_state:0x3 start_time:0xxxxxxxxxxxxxxxxx end_time:0xxxxxxxxxxxxxxxxx transaction_view_h:0x00000000 ACTUAL: enable_updatePC:0x0 enable_fetch:0x1 enable_decode:0x0 enable_execute:0x0 enable_writeback:0x0 br_taken:0x0 bypass_alu_1:0x0 bypass_alu_2:0x0 bypass_mem_1:0x0 bypass_mem_2:0x0 mem_state:0x3 start_time:0x00000000000000be end_time:0x00000000000000c8 transaction_view_h:0x00000000 
# UVM_INFO @ 210.000ns: uvm_test_top.environment.fetch_env.fetch_predictor [PRED] Received fetch_in: br_taken:0x0 taddr:0x0000 enable_updatePC:0x0 enable_fetch:0x1 start_time:0x00000000000000b4 end_time:0x00000000000000d2 transaction_view_h:0x00000000 
# UVM_INFO @ 210.000ns: uvm_test_top.environment.fetch_env.fetch_predictor [PRED] Prediction sent from fetch_model: pc=0x3000 npc=0x3001 instrmem_rd=1
# UVM_INFO @ 210.000ns: uvm_test_top.environment.fetch_env.fetch_scoreboard [SCBD] MATCH! - EXPECTED: instrmem_rd:0x1 pc:0x3000 npc:0x3001 start_time:0xxxxxxxxxxxxxxxxx end_time:0xxxxxxxxxxxxxxxxx transaction_view_h:0x00000000 ACTUAL: instrmem_rd:0x1 pc:0x3000 npc:0x3001 start_time:0x00000000000000b4 end_time:0x00000000000000d2 transaction_view_h:0x00000000 
# UVM_INFO @ 210.000ns: uvm_test_top.environment.memaccess_env.memaccess_predictor [PRED] Transaction Received through memaccess_analysis_predictor_export
# UVM_INFO @ 210.000ns: uvm_test_top.environment.memaccess_env.memaccess_sb [SCBD] MATCH! - EXPECTED: DMem_addr:0x0000 DMem_din:0x0000 memout:0x0000 DMem_rd:0x0 ACTUAL: DMem_addr:0x0000 DMem_din:0x0000 memout:0x0000 DMem_rd:0x0 
# UVM_INFO @ 210.000ns: uvm_test_top.environment.writeback_env.writeback_pred [PRED] Transaction Received through writeback_in_agent_ae
# UVM_INFO @ 210.000ns: uvm_test_top.environment.writeback_env.writeback_pred [PRED] Prediction sent from writeback_model: vsr1=0x0 vsr2=0x0 psr=0x0
# UVM_INFO @ 210.000ns: uvm_test_top.environment.writeback_env.writeback_sb [SCBD] MATCH! - EXPECTED: psr:0x0 vsr1:0x0000 vsr2:0x0000 ACTUAL: psr:0x0 vsr1:0x0000 vsr2:0x0000 
# UVM_INFO @ 210.000ns: uvm_test_top.environment.controller_env.controller_pred [PRED] Transaction Received through analysis_export
